{
    "name": "PlayerInputActions",
    "maps": [
        {
            "name": "PlayerActionMap",
            "id": "1a132cd1-214e-471f-ba7c-7235f6442d17",
            "actions": [
                {
                    "name": "RotateLeft",
                    "type": "Button",
                    "id": "59eb6c94-c6a7-4753-9b70-b17810ea6490",
                    "expectedControlType": "Button",
                    "processors": "",
                    "interactions": "",
                    "initialStateCheck": false
                },
                {
                    "name": "RotateRight",
                    "type": "Button",
                    "id": "ed72a3ea-8f8e-4309-8540-b98736a4a45e",
                    "expectedControlType": "Button",
                    "processors": "",
                    "interactions": "",
                    "initialStateCheck": false
                },
                {
                    "name": "Movement",
                    "type": "Value",
                    "id": "96f7ef72-d944-4c44-8650-b7b3e3f88642",
                    "expectedControlType": "Vector2",
                    "processors": "",
                    "interactions": "",
                    "initialStateCheck": true
                }
            ],
            "bindings": [
                {
                    "name": "WASD",
                    "id": "7ff55366-f275-4c48-9e60-b7e427a4e85f",
                    "path": "2DVector",
                    "interactions": "",
                    "processors": "",
                    "groups": "",
                    "action": "Movement",
                    "isComposite": true,
                    "isPartOfComposite": false
                },
                {
                    "name": "up",
                    "id": "1121a16c-931c-4b73-9ea7-a9d365fe76bb",
                    "path": "<Keyboard>/w",
                    "interactions": "",
                    "processors": "",
                    "groups": "",
                    "action": "Movement",
                    "isComposite": false,
                    "isPartOfComposite": true
                },
                {
                    "name": "down",
                    "id": "b26e836a-1509-46b5-a1b5-6a9bfd2dc792",
                    "path": "<Keyboard>/s",
                    "interactions": "",
                    "processors": "",
                    "groups": "",
                    "action": "Movement",
                    "isComposite": false,
                    "isPartOfComposite": true
                },
                {
                    "name": "left",
                    "id": "184645fe-587b-4ecf-ad6d-8b1338a5d761",
                    "path": "<Keyboard>/a",
                    "interactions": "",
                    "processors": "",
                    "groups": "",
                    "action": "Movement",
                    "isComposite": false,
                    "isPartOfComposite": true
                },
                {
                    "name": "right",
                    "id": "1695763c-3be7-46e8-be05-e2a08e5e98f4",
                    "path": "<Keyboard>/d",
                    "interactions": "",
                    "processors": "",
                    "groups": "",
                    "action": "Movement",
                    "isComposite": false,
                    "isPartOfComposite": true
                },
                {
                    "name": "",
                    "id": "83fd330f-9db0-4bab-9d18-8e4e7ac6f5bd",
                    "path": "<Keyboard>/leftArrow",
                    "interactions": "",
                    "processors": "",
                    "groups": "",
                    "action": "RotateLeft",
                    "isComposite": false,
                    "isPartOfComposite": false
                },
                {
                    "name": "",
                    "id": "081c069e-ad8f-482c-8381-2141745baa28",
                    "path": "<Keyboard>/rightArrow",
                    "interactions": "",
                    "processors": "",
                    "groups": "",
                    "action": "RotateRight",
                    "isComposite": false,
                    "isPartOfComposite": false
                }
            ]
        }
    ],
    "controlSchemes": []
}