%YAML 1.1
%TAG !u! tag:unity3d.com,2011:
--- !u!74 &7400000
AnimationClip:
  m_ObjectHideFlags: 0
  m_CorrespondingSourceObject: {fileID: 0}
  m_PrefabInstance: {fileID: 0}
  m_PrefabAsset: {fileID: 0}
  m_Name: Sky-Day
  serializedVersion: 6
  m_Legacy: 0
  m_Compressed: 0
  m_UseHighQualityCurve: 1
  m_RotationCurves: []
  m_CompressedRotationCurves: []
  m_EulerCurves: []
  m_PositionCurves: []
  m_ScaleCurves: []
  m_FloatCurves: []
  m_PPtrCurves:
  - curve:
    - time: 0
      value: {fileID: 21300000, guid: c16df75962f78a348b115d297d8146bd, type: 3}
    - time: 0.2
      value: {fileID: 21300000, guid: 2e53c7e4dc3eada4d863d9c1d4e6cf51, type: 3}
    - time: 0.4
      value: {fileID: 21300000, guid: bf8f282e5a4cb5047a98929469b55d70, type: 3}
    - time: 0.6
      value: {fileID: 21300000, guid: fd8c26fefd043b44da66773584d2a233, type: 3}
    - time: 0.76666665
      value: {fileID: 21300000, guid: c16df75962f78a348b115d297d8146bd, type: 3}
    attribute: m_Sprite
    path: Sky/SkySprite
    classID: 212
    script: {fileID: 0}
  m_SampleRate: 60
  m_WrapMode: 0
  m_Bounds:
    m_Center: {x: 0, y: 0, z: 0}
    m_Extent: {x: 0, y: 0, z: 0}
  m_ClipBindingConstant:
    genericBindings:
    - serializedVersion: 2
      path: 3843071677
      attribute: 0
      script: {fileID: 0}
      typeID: 212
      customType: 23
      isPPtrCurve: 1
    pptrCurveMapping:
    - {fileID: 21300000, guid: c16df75962f78a348b115d297d8146bd, type: 3}
    - {fileID: 21300000, guid: 2e53c7e4dc3eada4d863d9c1d4e6cf51, type: 3}
    - {fileID: 21300000, guid: bf8f282e5a4cb5047a98929469b55d70, type: 3}
    - {fileID: 21300000, guid: fd8c26fefd043b44da66773584d2a233, type: 3}
    - {fileID: 21300000, guid: c16df75962f78a348b115d297d8146bd, type: 3}
  m_AnimationClipSettings:
    serializedVersion: 2
    m_AdditiveReferencePoseClip: {fileID: 0}
    m_AdditiveReferencePoseTime: 0
    m_StartTime: 0
    m_StopTime: 0.7833333
    m_OrientationOffsetY: 0
    m_Level: 0
    m_CycleOffset: 0
    m_HasAdditiveReferencePose: 0
    m_LoopTime: 1
    m_LoopBlend: 0
    m_LoopBlendOrientation: 0
    m_LoopBlendPositionY: 0
    m_LoopBlendPositionXZ: 0
    m_KeepOriginalOrientation: 0
    m_KeepOriginalPositionY: 1
    m_KeepOriginalPositionXZ: 0
    m_HeightFromFeet: 0
    m_Mirror: 0
  m_EditorCurves: []
  m_EulerEditorCurves: []
  m_HasGenericRootTransform: 0
  m_HasMotionFloatCurves: 0
  m_Events: []
